EMP_ID,EMPL_PH_NB,NEW_EMPL_PH_NB,EFF_DATE,NEW_EFF_DATE,PH_TYP_CD,NEW_PH_TYP_CD,USER_ID,EMP_NAME
E101,9081233456,9081233123,12-Jan-18,09-Feb-91,E1,W,112,Samik Roy
E102,9081233458,9081233124,13-Jan-21,10-Feb-91,E1,W,101,Snehasish Guha Roy
E103,9081233459,9081233123,15-Dec-19,11-Feb-91,E1,W,102,Tapas Pal
E104,9081233471,9081233124,17-Nov-21,12-Feb-91,E1,W,103,Tanmoy Saha
E105,9081233472,9081233125,19-Nov-21,13-Feb-91,E1,W,103,Tanmoy Saha
E106,9081233473,9081233126,21-Oct-18,14-Feb-91,E1,W,103,Tanmoy Saha
E107,9874718200,9081233127,22-Nov-91,15-Feb-91,E1,W,103,Tanmoy Saha
E108,9081233468,9081233128,23-Dec-21,16-Feb-91,E1,W,103,Tanmoy Saha
E109,9081233464,9081233129,21-Feb-19,17-Feb-91,E1,W,103,Tanmoy Saha
E110,9081233469,9081233130,23-Feb-19,18-Feb-91,E1,W,103,Tanmoy Saha
E111,908123349,9081233131,27-Feb-19,19-Feb-91,E1,W,103,Tanmoy Saha
E112,9081233473,9081233156,12-Jan-13,20-Feb-91,E1,W,103,Tanmoy Saha
E113,9081233477,9081233133,09-Feb-91,21-Feb-91,E1,W,103,Tanmoy Saha
E114,9081233471,9081233134,10-Feb-91,22-Feb-91,E1,W,103,Tanmoy Saha
E115,9081233471,9081233135,11-Feb-91,23-Feb-91,E1,W,103,Tanmoy Saha
E116,9081233481,9081233136,12-Feb-91,24-Feb-91,E1,W,103,Tanmoy Saha
E117,9081233476,9081233137,13-Feb-91,25-Feb-91,E1,W,103,Tanmoy Saha
E118,9081233477,9081233138,13-Feb-91,26-Feb-91,E1,W,103,Tanmoy Saha
E119,9081233478,9081233139,13-Feb-91,27-Feb-91,E1,W,103,Tanmoy Saha
E120,9081233479,9081233140,13-Feb-91,28-Feb-91,E1,W,103,Tanmoy Saha
E121,9081233496,9081233141,13-Feb-91,01-Mar-91,E1,W,103,Tanmoy Saha
E122,9081233495,9081233142,13-Feb-91,02-Mar-91,E1,W,103,Tanmoy Saha
E123,9081233493,081233143,13-Feb-91,03-Mar-91,E1,W,103,Tanmoy Saha
E124,9081233494,9081233144,13-Feb-91,04-Mar-91,E1,W,103,Tanmoy Saha
E125,9081233425,9081233145,13-Feb-91,05-Mar-91,E1,W,103,Tanmoy Saha
E126,9081233426,9081233146,13-Feb-91,06-Mar-91,E1,W,103,Tanmoy Saha
E127,9081233497,9081233146,13-Feb-91,07-Mar-91,E1,W,103,Tanmoy Saha
E128,9081233499,9081233148,13-Feb-91,08-Mar-91,E1,W,103,Tanmoy Saha
E129,9081233499,9081233149,13-Feb-91,09-Mar-91,E1,W,103,Tanmoy Saha
